COUNTER_LPM/simulation/qsim/COUNTER_LPM.msim.vcd
$comment
	File created using the following command:
		vcd file COUNTER_LPM.msim.vcd -direction
$end
$date
	Thu Dec 17 16:49:24 2020
$end
$version
	ModelSim Version 10.1d
$end
$timescale
	1ps
$end
$scope module COUNTER_LPM_vlg_vec_tst $end
$var reg 1 ! CLC $end
$var reg 1 " CLS $end
$var reg 5 # SET [4:0] $end
$var wire 1 $ OUT [4] $end
$var wire 1 % OUT [3] $end
$var wire 1 & OUT [2] $end
$var wire 1 ' OUT [1] $end
$var wire 1 ( OUT [0] $end
$var wire 1 ) OUT_AND $end
$var wire 1 * TR [4] $end
$var wire 1 + TR [3] $end
$var wire 1 , TR [2] $end
$var wire 1 - TR [1] $end
$var wire 1 . TR [0] $end
$var wire 1 / sampler $end
$scope module i1 $end
$var wire 1 0 gnd $end
$var wire 1 1 vcc $end
$var wire 1 2 unknown $end
$var tri1 1 3 devclrn $end
$var tri1 1 4 devpor $end
$var tri1 1 5 devoe $end
$var wire 1 6 inst20~1_combout $end
$var wire 1 7 inst22~0_combout $end
$var wire 1 8 inst9~combout $end
$var wire 1 9 inst8~combout $end
$var wire 1 : inst11~combout $end
$var wire 1 ; inst10~combout $end
$var wire 1 < SET[0]~input_o $end
$var wire 1 = SET[3]~input_o $end
$var wire 1 > SET[4]~input_o $end
$var wire 1 ? SET[1]~input_o $end
$var wire 1 @ SET[2]~input_o $end
$var wire 1 A OUT_AND~output_o $end
$var wire 1 B OUT[4]~output_o $end
$var wire 1 C OUT[3]~output_o $end
$var wire 1 D OUT[2]~output_o $end
$var wire 1 E OUT[1]~output_o $end
$var wire 1 F OUT[0]~output_o $end
$var wire 1 G TR[4]~output_o $end
$var wire 1 H TR[3]~output_o $end
$var wire 1 I TR[2]~output_o $end
$var wire 1 J TR[1]~output_o $end
$var wire 1 K TR[0]~output_o $end
$var wire 1 L inst|LPM_COUNTER_component|auto_generated|counter_comb_bita0~COUT $end
$var wire 1 M inst|LPM_COUNTER_component|auto_generated|counter_comb_bita1~combout $end
$var wire 1 N ~GND~combout $end
$var wire 1 O CLS~input_o $end
$var wire 1 P inst30~combout $end
$var wire 1 Q inst|LPM_COUNTER_component|auto_generated|_~0_combout $end
$var wire 1 R inst|LPM_COUNTER_component|auto_generated|counter_comb_bita0~combout $end
$var wire 1 S inst20~3_combout $end
$var wire 1 T inst|LPM_COUNTER_component|auto_generated|counter_comb_bita1~COUT $end
$var wire 1 U inst|LPM_COUNTER_component|auto_generated|counter_comb_bita2~COUT $end
$var wire 1 V inst|LPM_COUNTER_component|auto_generated|counter_comb_bita3~COUT $end
$var wire 1 W inst|LPM_COUNTER_component|auto_generated|counter_comb_bita4~combout $end
$var wire 1 X inst1~feeder_combout $end
$var wire 1 Y inst29~q $end
$var wire 1 Z inst31~combout $end
$var wire 1 [ inst1~q $end
$var wire 1 \ inst2~feeder_combout $end
$var wire 1 ] inst2~q $end
$var wire 1 ^ inst20~0_combout $end
$var wire 1 _ CLC~input_o $end
$var wire 1 ` inst3~feeder_combout $end
$var wire 1 a inst3~q $end
$var wire 1 b inst4~feeder_combout $end
$var wire 1 c inst4~q $end
$var wire 1 d inst|LPM_COUNTER_component|auto_generated|counter_comb_bita2~combout $end
$var wire 1 e inst20~2_combout $end
$var wire 1 f inst20~4_combout $end
$var wire 1 g CLC~inputclkctrl_outclk $end
$var wire 1 h inst|LPM_COUNTER_component|auto_generated|counter_comb_bita3~combout $end
$var wire 1 i inst|LPM_COUNTER_component|auto_generated|counter_reg_bit [4] $end
$var wire 1 j inst|LPM_COUNTER_component|auto_generated|counter_reg_bit [3] $end
$var wire 1 k inst|LPM_COUNTER_component|auto_generated|counter_reg_bit [2] $end
$var wire 1 l inst|LPM_COUNTER_component|auto_generated|counter_reg_bit [1] $end
$var wire 1 m inst|LPM_COUNTER_component|auto_generated|counter_reg_bit [0] $end
$upscope $end
$upscope $end
$enddefinitions $end
#0
$dumpvars
0!
0"
b0 #
x(
x'
x&
x%
x$
x)
0.
x-
x,
x+
x*
x/
00
11
x2
13
14
15
x6
x7
x8
x9
x:
x;
0<
0=
0>
0?
0@
xA
xB
xC
xD
xE
xF
xG
xH
xI
xJ
0K
xL
xM
0N
0O
xP
xQ
xR
xS
xT
xU
xV
xW
1X
0Y
xZ
0[
1\
0]
x^
0_
1`
0a
1b
0c
xd
xe
xf
xg
xh
0m
0l
0k
0j
0i
$end
#173
0g
#666
1S
#778
0U
0L
#827
1R
#912
1V
#925
1T
#1138
06
#1145
1^
#1290
0M
0h
#1307
07
#1424
0W
#1437
0d
#1832
0e
#2200
0f
#3338
0I
0,
#3354
0F
0(
#3461
0:
#3483
08
#3486
09
#3667
0G
0E
0*
0'
#3698
0J
0-
#3700
0B
0$
#3701
0D
0&
#3727
0H
0+
#3791
0Q
#3808
0P
#3809
0Z
#3829
0;
#4035
0C
0%
#5463
0A
0)
#10000
1!
1"
0/
#10670
1O
#10730
1_
#10917
1g
#14219
1P
#14220
1Z
#14222
1Q
#20000
0!
1/
#20836
0_
#21009
0g
#30000
0"
1!
0/
#30730
1_
#30776
0O
#30917
1g
#34567
0Q
#34584
0P
#34585
0Z
#40000
0!
1/
#40836
0_
#41009
0g
#50000
1!
0/
#50730
1_
#50917
1g
#60000
0!
1/
#60836
0_
#61009
0g
#70000
b10000 #
b11000 #
1!
0/
#70660
1>
1=
#70730
1_
#70917
1g
#73884
18
#73887
19
#74928
1[
#74959
1]
#75913
17
#76008
0^
#76014
16
#76593
1Q
#76675
1e
#76802
08
#76803
09
#78581
1G
1*
#78679
1H
1+
#80000
0!
1/
#80836
0_
#81009
0g
#90000
b1000 #
b0 #
1!
0/
#90730
1_
#90766
0>
0=
#90917
1g
#93294
1m
#93718
0S
#94035
0R
#94109
1L
#94645
1M
#96637
1F
1(
#100000
0!
1/
#100836
0_
#101009
0g
#110000
1!
0/
#110730
1_
#110917
1g
#113294
1l
0m
#113811
1S
#113990
0T
#114044
06
#114052
0M
#114072
0L
#114121
1R
#114138
1T
#114608
1M
#114735
0S
#114738
0e
#116648
0F
0(
#116954
1E
1'
#120000
0!
1/
#120836
0_
#121009
0g
#130000
b1000 #
1!
0/
#130660
1=
#130730
1_
#130917
1g
#133294
1m
#134035
0R
#134109
1L
#134175
0T
#134621
0M
#134711
1d
#136637
1F
1(
#140000
0!
1/
#140836
0_
#141009
0g
#150000
b0 #
1!
0/
#150730
1_
#150766
0=
#150917
1g
#153294
0l
0m
1k
#153960
1S
#154036
0d
#154072
0L
#154110
1U
#154113
16
#154121
1R
#154219
1T
#154285
0U
#154755
1d
#156648
0F
0(
#156961
0E
0'
#156986
1D
1&
#160000
0!
1/
#160836
0_
#161009
0g
#170000
1!
0/
#170730
1_
#170917
1g
#173294
1m
#173718
0S
#174035
0R
#174109
1L
#174645
1M
#176637
1F
1(
#180000
0!
1/
#180836
0_
#181009
0g
#190000
1!
0/
#190730
1_
#190917
1g
#193294
1l
0m
#193811
1S
#193990
0T
#194044
06
#194052
0M
#194056
1U
#194072
0L
#194121
1R
#194138
1T
#194204
0U
#194608
1M
#194735
0S
#196648
0F
0(
#196954
1E
1'
#200000
0!
1/
#200836
0_
#201009
0g
#210000
1!
0/
#210730
1_
#210917
1g
#213294
1m
#214035
0R
#214109
1L
#214175
0T
#214241
1U
#214621
0M
#214687
0d
#214777
1h
#216637
1F
1(
#220000
0!
1/
#220836
0_
#221009
0g
#230000
1!
0/
#230730
1_
#230917
1g
#233294
0l
0m
0k
1j
#233960
1S
#233981
0V
#234041
0h
#234072
0L
0U
#234113
16
#234121
1d
1R
#234138
1V
#234219
1T
#234608
1h
#234731
0d
#234774
1e
#236648
0F
0(
#236961
0E
0'
#236995
0D
0&
#237324
1C
1%
#240000
0!
1/
#240836
0_
#241009
0g
#250000
1!
0/
#250730
1_
#250917
1g
#253294
1m
#253718
0S
#254035
0R
#254109
1L
#254645
1M
#256637
1F
1(
#260000
0!
1/
#260836
0_
#261009
0g
#270000
1!
0/
#270730
1_
#270917
1g
#273294
1l
0m
#273811
1S
#273990
0T
#274044
06
#274052
0M
#274072
0L
#274121
1R
#274138
1T
#274608
1M
#274735
0S
#274738
0e
#276648
0F
0(
#276954
1E
1'
#280000
0!
1/
#280836
0_
#281009
0g
#290000
1!
0/
#290730
1_
#290917
1g
#293294
1m
#294035
0R
#294109
1L
#294175
0T
#294621
0M
#294711
1d
#296637
1F
1(
#300000
0!
1/
#300836
0_
#301009
0g
#310000
1!
0/
#310730
1_
#310917
1g
#313294
0l
0m
1k
#313960
1S
#314036
0d
#314072
0L
#314110
1U
#314113
16
#314121
1R
#314176
0V
#314219
1T
#314285
0U
#314351
1V
#314755
1d
#316648
0F
0(
#316961
0E
0'
#316986
1D
1&
#320000
0!
1/
#320836
0_
#321009
0g
#330000
1!
0/
#330730
1_
#330917
1g
#333294
1m
#333718
0S
#334035
0R
#334109
1L
#334645
1M
#336637
1F
1(
#340000
0!
1/
#340836
0_
#341009
0g
#350000
1!
0/
#350730
1_
#350917
1g
#353294
1l
0m
#353811
1S
#353990
0T
#354044
06
#354052
0M
#354056
1U
#354072
0L
#354121
1R
#354122
0V
#354138
1T
#354204
0U
#354270
1V
#354608
1M
#354735
0S
#356648
0F
0(
#356954
1E
1'
#360000
0!
1/
#360836
0_
#361009
0g
#370000
1!
0/
#370730
1_
#370917
1g
#373294
1m
#374035
0R
#374109
1L
#374175
0T
#374241
1U
#374307
0V
#374621
0M
#374687
0d
#374753
0h
#374843
1W
#376637
1F
1(
#380000
0!
1/
#380836
0_
#381009
0g
#390000
1!
0/
#390730
1_
#390917
1g
#393294
0l
0m
1i
0k
0j
#393960
1S
#394056
0W
#394072
0L
0U
#394113
16
#394121
1d
1R
#394206
1V
#394219
1T
#394731
0d
#394742
1W
#394774
1e
#396648
0F
0(
#396961
0E
0'
#396987
1B
1$
#396995
0D
0&
#397329
0C
0%
#400000
0!
1/
#400836
0_
#401009
0g
#410000
1!
0/
#410730
1_
#410917
1g
#413294
1m
#413718
0S
#414035
0R
#414109
1L
#414645
1M
#416637
1F
1(
#420000
0!
1/
#420836
0_
#421009
0g
#430000
1!
0/
#430730
1_
#430917
1g
#433294
1l
0m
#433811
1S
#433990
0T
#434044
06
#434052
0M
#434072
0L
#434121
1R
#434138
1T
#434608
1M
#434735
0S
#434738
0e
#436648
0F
0(
#436954
1E
1'
#440000
0!
1/
#440836
0_
#441009
0g
#450000
1!
0/
#450730
1_
#450917
1g
#453294
1m
#454035
0R
#454109
1L
#454175
0T
#454621
0M
#454711
1d
#456637
1F
1(
#460000
0!
1/
#460836
0_
#461009
0g
#470000
1!
0/
#470730
1_
#470917
1g
#473294
0l
0m
1k
#473960
1S
#474036
0d
#474072
0L
#474110
1U
#474113
16
#474121
1R
#474219
1T
#474285
0U
#474755
1d
#476648
0F
0(
#476961
0E
0'
#476986
1D
1&
#480000
0!
1/
#480836
0_
#481009
0g
#490000
1!
0/
#490730
1_
#490917
1g
#493294
1m
#493718
0S
#494035
0R
#494109
1L
#494645
1M
#496637
1F
1(
#500000
0!
1/
#500836
0_
#501009
0g
#510000
1!
0/
#510730
1_
#510917
1g
#513294
1l
0m
#513811
1S
#513990
0T
#514044
06
#514052
0M
#514056
1U
#514072
0L
#514121
1R
#514138
1T
#514204
0U
#514608
1M
#514735
0S
#516648
0F
0(
#516954
1E
1'
#520000
0!
1/
#520836
0_
#521009
0g
#530000
1!
0/
#530730
1_
#530917
1g
#533294
1m
#534035
0R
#534109
1L
#534175
0T
#534241
1U
#534621
0M
#534687
0d
#534777
1h
#536637
1F
1(
#540000
0!
1/
#540836
0_
#541009
0g
#550000
1!
0/
#550730
1_
#550917
1g
#553294
0l
0m
0k
1j
#553960
1S
#553981
0V
#554024
1^
#554041
0h
#554072
0L
0U
#554113
16
#554121
1d
1R
#554138
1V
#554219
1T
#554608
1h
#554731
0d
#554774
1e
#556648
0F
0(
#556961
0E
0'
#556995
0D
0&
#557324
1C
1%
#560000
0!
1/
#560836
0_
#561009
0g
#564975
1f
#565659
1P
#568267
1A
1)
#570000
1!
0/
#570730
1_
#570917
1g
#573294
0i
1Y
0j
#573705
1Z
#574130
0^
#574136
0h
#574145
0W
#574764
0f
#574993
0Y
#575453
0P
#575459
0Z
#575661
0]
0[
#576799
06
#576806
1^
#576968
07
#576994
0B
0$
#577329
0C
0%
#577493
0e
#577677
0Q
#578027
0A
0)
#579328
0G
0*
#579388
0H
0+
#580000
0!
1/
#580836
0_
#581009
0g
#590000
1!
0/
#590730
1_
#590917
1g
#600000
0!
1/
#600836
0_
#601009
0g
#610000
1!
0/
#610730
1_
#610917
1g
#620000
0!
1/
#620836
0_
#621009
0g
#630000
1!
0/
#630730
1_
#630917
1g
#640000
0!
1/
#640836
0_
#641009
0g
#650000
1!
0/
#650730
1_
#650917
1g
#660000
0!
1/
#660836
0_
#661009
0g
#670000
1!
0/
#670730
1_
#670917
1g
#680000
0!
1/
#680836
0_
#681009
0g
#690000
1!
0/
#690730
1_
#690917
1g
#700000
0!
1/
#700836
0_
#701009
0g
#710000
1!
0/
#710730
1_
#710917
1g
#720000
0!
1/
#720836
0_
#721009
0g
#730000
1!
0/
#730730
1_
#730917
1g
#740000
0!
1/
#740836
0_
#741009
0g
#750000
1!
0/
#750730
1_
#750917
1g
#760000
0!
1/
#760836
0_
#761009
0g
#770000
1!
0/
#770730
1_
#770917
1g
#780000
0!
1/
#780836
0_
#781009
0g
#790000
b100 #
1!
0/
#790700
1@
#790730
1_
#790917
1g
#794275
1;
#795316
1a
#796566
17
#797246
1Q
#797596
0;
#798645
1I
1,
#800000
0!
1/
#800836
0_
#801009
0g
#810000
b0 #
1!
0/
#810730
1_
#810806
0@
#810917
1g
#813294
1m
#813718
0S
#814035
0R
#814109
1L
#814645
1M
#816637
1F
1(
#820000
0!
1/
#820836
0_
#821009
0g
#830000
1!
0/
#830730
1_
#830917
1g
#833294
1l
0m
#833990
0T
#834052
0M
#834072
0L
#834121
1R
#834138
1T
#834608
1M
#836648
0F
0(
#836954
1E
1'
#840000
0!
1/
#840836
0_
#841009
0g
#850000
1!
0/
#850730
1_
#850917
1g
#853294
1m
#854035
0R
#854109
1L
#854175
0T
#854621
0M
#854711
1d
#856637
1F
1(
#860000
0!
1/
#860836
0_
#861009
0g
#870000
1!
0/
#870730
1_
#870917
1g
#873294
0l
0m
1k
#873734
1e
#873960
1S
#874036
0d
#874072
0L
#874110
1U
#874121
1R
#874219
1T
#874285
0U
#874755
1d
#876648
0F
0(
#876961
0E
0'
#876986
1D
1&
#880000
0!
1/
#880836
0_
#881009
0g
#884975
1f
#885659
1P
#888267
1A
1)
#890000
1!
0/
#890730
1_
#890917
1g
#893294
1Y
0k
#893705
1Z
#893795
0e
#894128
0d
#894163
0f
#894852
0P
#894993
0Y
#895299
0a
#895459
0Z
#896583
07
#896995
0D
0&
#897292
0Q
#897426
0A
0)
#898637
0I
0,
#900000
0!
1/
#900836
0_
#901009
0g
#910000
1!
0/
#910730
1_
#910917
1g
#920000
0!
1/
#920836
0_
#921009
0g
#930000
1!
0/
#930730
1_
#930917
1g
#940000
0!
1/
#940836
0_
#941009
0g
#950000
1!
0/
#950730
1_
#950917
1g
#960000
0!
1/
#960836
0_
#961009
0g
#970000
1!
0/
#970730
1_
#970917
1g
#980000
0!
1/
#980836
0_
#981009
0g
#990000
1!
0/
#990730
1_
