Magic_Box/simulation/qsim/Magic_Box.msim.vcd
$comment
	File created using the following command:
		vcd file Magic_Box.msim.vcd -direction
$end
$date
	Wed Dec 23 12:00:39 2020
$end
$version
	ModelSim Version 10.1d
$end
$timescale
	1ps
$end
$scope module Magic_Box_vlg_vec_tst $end
$var reg 1 ! AM $end
$var reg 1 " CLS $end
$var reg 1 # PC $end
$var wire 1 $ CLS_SIGNAL $end
$var wire 1 % D_trigger $end
$var wire 1 & OUTPUT $end
$var wire 1 ' sampler $end
$scope module i1 $end
$var wire 1 ( gnd $end
$var wire 1 ) vcc $end
$var wire 1 * unknown $end
$var tri1 1 + devclrn $end
$var tri1 1 , devpor $end
$var tri1 1 - devoe $end
$var wire 1 . inst5~combout $end
$var wire 1 / PC~input_o $end
$var wire 1 0 OUTPUT~output_o $end
$var wire 1 1 D_trigger~output_o $end
$var wire 1 2 CLS_SIGNAL~output_o $end
$var wire 1 3 AM~input_o $end
$var wire 1 4 inst~0_combout $end
$var wire 1 5 CLS~input_o $end
$var wire 1 6 inst~q $end
$var wire 1 7 inst4~0_combout $end
$var wire 1 8 inst4~q $end
$var wire 1 9 inst3~combout $end
$var wire 1 : inst6~combout $end
$upscope $end
$upscope $end
$enddefinitions $end
#0
$dumpvars
0!
0"
0#
x$
x%
x&
x'
0(
1)
x*
1+
1,
1-
x.
0/
x0
x1
x2
03
14
05
06
x7
08
x9
x:
$end
#464
09
#643
17
#805
0:
#3445
11
1%
#3803
1.
#4106
02
0$
#5647
00
0&
#500000
1!
1"
0'
#500639
13
#500650
15
#502649
18
#503988
19
#506206
08
#506670
09
#1000000
0!
1'
#1000745
03
#1500000
0"
1!
0'
#1500639
13
#1500756
05
#2000000
0!
1'
#2000745
03
#2500000
1#
1!
0'
#2500639
13
#2500649
1/
#2502649
18
#2503988
19
#2504204
0.
#2509234
10
1&
#3000000
0!
1'
#3000745
03
#3004358
09
#3009541
00
0&
#3500000
0#
1!
0'
#3500639
13
#3500755
0/
#3503988
19
#3504558
1.
#3505599
16
#3506028
04
#3506156
07
#3506347
1:
#3509081
01
0%
#3509234
10
1&
#3509732
12
1$
#4000000
0!
1'
#4000745
03
#4001756
0.
#4004358
09
#4004509
0:
#4007810
02
0$
#4009541
00
0&
#4500000
1!
0'
#4500639
13
#4501696
1.
#4502649
08
#4502737
06
#4503146
14
#4503380
17
#4506182
11
1%
#5000000
0!
1'
#5000745
03
#5500000
1!
0'
#5500639
13
#5502649
18
#5503988
19
#5509234
10
1&
#6000000
1#
0!
1'
#6000649
1/
#6000745
03
#6004204
0.
#6004358
09
#6009541
00
0&
#6500000
1!
0'
#6500639
13
#6503988
19
#6509234
10
1&
#7000000
0#
0!
1'
#7000745
03
#7000755
0/
#7004358
09
#7004558
1.
#7005599
16
#7006028
04
#7006156
07
#7006340
0.
#7009081
01
0%
#7009541
00
0&
#7500000
1!
0'
#7500639
13
#7501696
1.
#7502649
08
#7502737
06
#7503146
14
#7503380
17
#7506182
11
1%
#8000000
0!
1'
#8000745
03
#8500000
1!
0'
#8500639
13
#8502649
18
#8503988
19
#8509234
10
1&
#9000000
0!
1'
#9000745
03
#9004358
09
#9009541
00
0&
#9500000
1!
0'
#9500639
13
#9503988
19
#9509234
10
1&
#9700000
1#
1'
#9700649
1/
#9704204
0.
#10000000
0!
0'
#10000745
03
#10004358
09
#10009541
00
0&
#10500000
1!
1'
#10500639
13
#10503988
19
#10509234
10
1&
#11000000
0!
0'
#11000745
03
#11004358
09
#11009541
00
0&
#11500000
1!
1'
#11500639
13
#11503988
19
#11509234
10
1&
#12000000
0!
0'
#12000745
03
#12004358
09
#12009541
00
0&
#12300000
0#
1'
#12300755
0/
#12304558
1.
#12305599
16
#12306028
04
#12306156
07
#12306340
0.
#12309081
01
0%
#12500000
1!
0'
#12500639
13
#12501696
1.
#12502649
08
#12502737
06
#12503146
14
#12503380
17
#12506182
11
1%
#13000000
0!
1'
#13000745
03
#13500000
1!
0'
#13500639
13
#13502649
18
#13503988
19
#13509234
10
1&
#14000000
0!
1'
#14000745
03
#14004358
09
#14009541
00
0&
#14500000
1!
0'
#14500639
13
#14503988
19
#14509234
10
1&
#15000000
0!
1'
#15000745
03
#15004358
09
#15009541
00
0&
#15500000
1!
0'
#15500639
13
#15503988
19
#15509234
10
1&
#16000000
0!
1'
#16000745
03
#16004358
09
#16009541
00
0&
#16500000
1!
0'
#16500639
13
#16503988
19
#16509234
10
1&
#17000000
0!
1'
#17000745
03
#17004358
09
#17009541
00
0&
#17200000
1#
0'
#17200649
1/
#17204204
0.
#17500000
1!
1'
#17500639
13
#17503988
19
#17509234
10
1&
#17800000
0#
0'
#17800755
0/
#17804558
1.
#17805599
16
#17806028
04
#17806156
07
#17806347
1:
#17809081
01
0%
#17809732
12
1$
#18000000
0!
1'
#18000745
03
#18001756
0.
#18004358
09
#18004509
0:
#18007810
02
0$
#18009541
00
0&
#18500000
1!
0'
#18500639
13
#18501696
1.
#18502649
08
#18502737
06
#18503146
14
#18503380
17
#18506182
11
1%
#19000000
0!
1'
#19000745
03
#19500000
1!
0'
#19500639
13
#19502649
18
#19503988
19
#19509234
10
1&
#20000000
0!
1'
#20000745
03
#20004358
09
#20009541
00
0&
#20500000
1!
0'
#20500639
13
#20503988
19
#20509234
10
1&
#21000000
0!
1'
#21000745
03
#21004358
09
#21009541
00
0&
#21500000
1!
0'
#21500639
13
#21503988
19
#21509234
10
1&
#22000000
0!
1'
#22000745
03
#22004358
09
#22009541
00
0&
#22500000
1!
0'
#22500639
13
#22503988
19
#22509234
10
1&
#23000000
0!
1'
#23000745
03
#23004358
09
#23009541
00
0&
#23500000
1!
0'
#23500639
13
#23503988
19
#23509234
10
1&
#24000000
0!
1'
#24000745
03
#24004358
09
#24009541
00
0&
#24500000
1!
0'
#24500639
13
#24503988
19
#24509234
10
1&
#24600000
1#
1'
#24600649
1/
#24604204
0.
#24700000
0#
0'
#24700755
0/
#24704558
1.
#24705599
16
#24706028
04
#24706156
07
#24706347
1:
#24709081
01
0%
#24709732
12
1$
#24900000
1#
1'
#24900649
1/
#25000000
0!
0#
0'
#25000745
03
#25000755
0/
#25001756
0.
#25004358
09
#25004509
0:
#25007810
02
0$
#25009541
00
0&
#25500000
1!
1'
#25500639
13
#25501696
1.
#25502649
08
#25502737
06
#25503146
14
#25503380
17
#25506182
11
1%
#26000000
0!
0'
#26000745
03
#26500000
1!
1'
#26500639
13
#26502649
18
#26503988
19
#26509234
10
1&
#26900000
1#
0'
#26900649
1/
#26904204
0.
#27000000
0!
1'
#27000745
03
#27004358
09
#27009541
00
0&
#27100000
0#
0'
#27100755
0/
#27104558
1.
#27105599
16
#27106028
04
#27106156
07
#27106340
0.
#27109081
01
0%
#27300000
1#
1'
#27300649
1/
#27500000
1!
0#
0'
#27500639
13
#27500755
0/
#27501696
1.
#27502649
08
#27502737
06
#27503146
14
#27503380
17
#27503541
0.
#27504558
1.
#27505599
16
#27506028
04
#27506156
07
#27506182
11
1%
#27506347
1:
#27509081
01
0%
#27509732
12
1$
#27900000
1#
1'
#27900649
1/
#28000000
0!
0#
0'
#28000745
03
#28000755
0/
#28001756
0.
#28004509
0:
#28007810
02
0$
#28500000
1!
1'
#28500639
13
#28501696
1.
#28502737
06
#28503146
14
#28503380
17
#28506182
11
1%
#29000000
0!
0'
#29000745
03
#29500000
1!
1'
#29500639
13
#29502649
18
#29503988
19
#29509234
10
1&
#30000000
0!
0'
#30000745
03
#30004358
09
#30009541
00
0&
#30500000
1!
1'
#30500639
13
#30503988
19
#30509234
10
1&
#31000000
0!
0'
#31000745
03
#31004358
09
#31009541
00
0&
#31500000
1!
1'
#31500639
13
#31503988
19
#31509234
10
1&
#32000000
0!
0'
#32000745
03
#32004358
09
#32009541
00
0&
#32500000
1!
1'
#32500639
13
#32503988
19
#32509234
10
1&
#33000000
0!
0'
#33000745
03
#33004358
09
#33009541
00
0&
#33500000
1!
1'
#33500639
13
#33503988
19
#33509234
10
1&
#34000000
0!
0'
#34000745
03
#34004358
09
#34009541
00
0&
#34500000
1!
1'
#34500639
13
#34503988
19
#34509234
10
1&
#35000000
0!
0'
#35000745
03
#35004358
09
#35009541
00
0&
#35500000
1!
1'
#35500639
13
#35503988
19
#35509234
10
1&
#36000000
0!
0'
#36000745
03
#36004358
09
#36009541
00
0&
#36500000
1!
1'
#36500639
13
#36503988
19
#36509234
10
1&
#37000000
0!
0'
#37000745
03
#37004358
09
#37009541
00
0&
#37500000
1!
1'
#37500639
13
#37503988
19
#37509234
10
1&
#38000000
0!
0'
#38000745
03
#38004358
09
#38009541
00
0&
#38500000
1!
1'
#38500639
13
#38503988
19
#38509234
10
1&
#39000000
0!
0'
#39000745
03
#39004358
09
#39009541
00
0&
#39500000
1!
1'
#39500639
13
#39503988
19
#39509234
10
1&
#40000000
0!
0'
#40000745
03
#40004358
09
#40009541
00
0&
#40500000
1!
1'
#40500639
13
#40503988
19
#40509234
10
1&
#41000000
0!
0'
#41000745
03
#41004358
09
#41009541
00
0&
#41500000
1!
1'
#41500639
13
#41503988
19
#41509234
10
1&
#42000000
0!
0'
#42000745
03
#42004358
09
#42009541
00
0&
#42500000
1!
1'
#42500639
13
#42503988
19
#42509234
10
1&
#43000000
0!
0'
#43000745
03
#43004358
09
#43009541
00
0&
#43500000
1!
1'
#43500639
13
#43503988
19
#43509234
10
1&
#44000000
0!
0'
#44000745
03
#44004358
09
#44009541
00
0&
#44500000
1!
1'
#44500639
13
#44503988
19
#44509234
10
1&
#45000000
0!
0'
#45000745
03
#45004358
09
#45009541
00
0&
#45500000
1!
1'
#45500639
13
#45503988
19
#45509234
10
1&
#46000000
0!
0'
#46000745
03
#46004358
09
#46009541
00
0&
#46500000
1!
1'
#46500639
13
#46503988
19
#46509234
10
1&
#47000000
0!
0'
#47000745
03
#47004358
09
#47009541
00
0&
#47500000
1!
1'
#47500639
13
#47503988
19
#47509234
10
1&
#48000000
0!
0'
#48000745
03
#48004358
09
#48009541
00
0&
#48500000
1!
1'
#48500639
13
#48503988
19
#48509234
10
1&
#49000000
0!
0'
#49000745
03
#49004358
09
#49009541
00
0&
#49500000
1!
1'
#49500639
13
#49503988
19
#49509234
10
1&
