Magic_Box_v2/simulation/qsim/Magic_Box.msim.vcd
$comment
	File created using the following command:
		vcd file Magic_Box.msim.vcd -direction
$end
$date
	Fri Dec 25 13:15:58 2020
$end
$version
	ModelSim Version 10.1d
$end
$timescale
	1ps
$end
$scope module MAGIC_BOX_vlg_vec_tst $end
$var reg 1 ! AM $end
$var reg 1 " CLS $end
$var reg 5 # SET [4:0] $end
$var wire 1 $ AM_OUTPUT $end
$var wire 1 % OUT [4] $end
$var wire 1 & OUT [3] $end
$var wire 1 ' OUT [2] $end
$var wire 1 ( OUT [1] $end
$var wire 1 ) OUT [0] $end
$var wire 1 * OUT_AND $end
$var wire 1 + TR [4] $end
$var wire 1 , TR [3] $end
$var wire 1 - TR [2] $end
$var wire 1 . TR [1] $end
$var wire 1 / TR [0] $end
$var wire 1 0 sampler $end
$scope module i1 $end
$var wire 1 1 gnd $end
$var wire 1 2 vcc $end
$var wire 1 3 unknown $end
$var tri1 1 4 devclrn $end
$var tri1 1 5 devpor $end
$var tri1 1 6 devoe $end
$var wire 1 7 SYNTHESIZED_WIRE_37~combout $end
$var wire 1 8 SYNTHESIZED_WIRE_11~combout $end
$var wire 1 9 SYNTHESIZED_WIRE_3~combout $end
$var wire 1 : SYNTHESIZED_WIRE_33~combout $end
$var wire 1 ; SYNTHESIZED_WIRE_28~combout $end
$var wire 1 < SET[0]~input_o $end
$var wire 1 = SET[3]~input_o $end
$var wire 1 > SET[4]~input_o $end
$var wire 1 ? SET[1]~input_o $end
$var wire 1 @ SET[2]~input_o $end
$var wire 1 A OUT_AND~output_o $end
$var wire 1 B AM_OUTPUT~output_o $end
$var wire 1 C OUT[0]~output_o $end
$var wire 1 D OUT[1]~output_o $end
$var wire 1 E OUT[2]~output_o $end
$var wire 1 F OUT[3]~output_o $end
$var wire 1 G OUT[4]~output_o $end
$var wire 1 H TR[0]~output_o $end
$var wire 1 I TR[1]~output_o $end
$var wire 1 J TR[2]~output_o $end
$var wire 1 K TR[3]~output_o $end
$var wire 1 L TR[4]~output_o $end
$var wire 1 M TR_ALTERA_SYNTHESIZED[0]~feeder_combout $end
$var wire 1 N CLS~input_o $end
$var wire 1 O DFF_inst29~q $end
$var wire 1 P SYNTHESIZED_WIRE_40~combout $end
$var wire 1 Q AM~input_o $end
$var wire 1 R b2v_inst|LPM_COUNTER_component|auto_generated|counter_comb_bita0~combout $end
$var wire 1 S ~GND~combout $end
$var wire 1 T SYNTHESIZED_WIRE_48~2_combout $end
$var wire 1 U b2v_inst|LPM_COUNTER_component|auto_generated|counter_comb_bita0~COUT $end
$var wire 1 V b2v_inst|LPM_COUNTER_component|auto_generated|counter_comb_bita1~COUT $end
$var wire 1 W b2v_inst|LPM_COUNTER_component|auto_generated|counter_comb_bita2~COUT $end
$var wire 1 X b2v_inst|LPM_COUNTER_component|auto_generated|counter_comb_bita3~COUT $end
$var wire 1 Y b2v_inst|LPM_COUNTER_component|auto_generated|counter_comb_bita4~combout $end
$var wire 1 Z TR_ALTERA_SYNTHESIZED[1]~feeder_combout $end
$var wire 1 [ TR_ALTERA_SYNTHESIZED[2]~feeder_combout $end
$var wire 1 \ TR_ALTERA_SYNTHESIZED[3]~feeder_combout $end
$var wire 1 ] b2v_inst22|lpm_instance~0_combout $end
$var wire 1 ^ b2v_inst22|lpm_instance~combout $end
$var wire 1 _ b2v_inst|LPM_COUNTER_component|auto_generated|_~0_combout $end
$var wire 1 ` TR_ALTERA_SYNTHESIZED[4]~feeder_combout $end
$var wire 1 a SYNTHESIZED_WIRE_48~3_combout $end
$var wire 1 b b2v_inst|LPM_COUNTER_component|auto_generated|counter_comb_bita1~combout $end
$var wire 1 c SYNTHESIZED_WIRE_48~4_combout $end
$var wire 1 d SYNTHESIZED_WIRE_48~5_combout $end
$var wire 1 e SYNTHESIZED_WIRE_0~combout $end
$var wire 1 f SYNTHESIZED_WIRE_48~6_combout $end
$var wire 1 g b2v_inst|LPM_COUNTER_component|auto_generated|counter_comb_bita2~combout $end
$var wire 1 h b2v_inst19|lpm_instance~0_combout $end
$var wire 1 i AM_OUTPUT~0_combout $end
$var wire 1 j AM~inputclkctrl_outclk $end
$var wire 1 k b2v_inst|LPM_COUNTER_component|auto_generated|counter_comb_bita3~combout $end
$var wire 1 l TR_ALTERA_SYNTHESIZED [4] $end
$var wire 1 m TR_ALTERA_SYNTHESIZED [3] $end
$var wire 1 n TR_ALTERA_SYNTHESIZED [2] $end
$var wire 1 o TR_ALTERA_SYNTHESIZED [1] $end
$var wire 1 p TR_ALTERA_SYNTHESIZED [0] $end
$var wire 1 q b2v_inst|LPM_COUNTER_component|auto_generated|counter_reg_bit [4] $end
$var wire 1 r b2v_inst|LPM_COUNTER_component|auto_generated|counter_reg_bit [3] $end
$var wire 1 s b2v_inst|LPM_COUNTER_component|auto_generated|counter_reg_bit [2] $end
$var wire 1 t b2v_inst|LPM_COUNTER_component|auto_generated|counter_reg_bit [1] $end
$var wire 1 u b2v_inst|LPM_COUNTER_component|auto_generated|counter_reg_bit [0] $end
$upscope $end
$upscope $end
$enddefinitions $end
#0
$dumpvars
0!
1"
b0 #
0$
0)
0(
0'
0&
0%
0*
0/
0.
0-
0,
0+
x0
01
12
x3
14
15
16
07
08
09
0:
0;
0<
0=
0>
0?
0@
0A
0B
0C
0D
0E
0F
0G
0H
0I
0J
0K
0L
1M
1N
0O
1P
0Q
1R
0S
1T
0U
1V
0W
1X
0Y
1Z
1[
1\
0]
0^
1_
1`
1a
0b
1c
0d
1e
0f
0g
0h
0i
0j
0k
0p
0o
0n
0m
0l
0u
0t
0s
0r
0q
$end
#500000
1!
1Q
1j
00
0T
1i
1B
1$
#1000000
0!
0Q
0j
10
1T
0i
0B
0$
#1500000
0"
1!
0N
1Q
1j
00
0e
0_
0P
0T
1i
1B
1$
#2000000
0!
0Q
0j
10
1T
0i
0B
0$
#2500000
b1000 #
b1100 #
b1101 #
1!
1<
1@
1=
1Q
1j
00
17
1;
18
0T
1i
1B
1$
1p
1n
1m
1]
0c
0a
1H
1J
1K
1/
1-
1,
1^
0;
08
07
1_
#3000000
0!
0Q
0j
10
0i
0B
0$
#3500000
b101 #
b1 #
b0 #
1!
0<
0@
0=
1Q
1j
00
1i
1B
1$
1u
1U
0R
1C
1)
0i
1b
0B
0$
#4000000
0!
0Q
0j
10
1T
#4500000
1!
1Q
1j
00
0T
0u
1t
0U
1R
1h
0V
0b
0C
1D
0)
1(
1i
1V
1b
1g
1B
1$
0i
0g
0B
0$
#5000000
0!
0Q
0j
10
#5500000
b10 #
1!
1?
1Q
1j
00
1u
1U
0R
1C
1)
0V
0b
1g
#6000000
0!
0Q
0j
10
1T
#6500000
b0 #
1!
0?
1Q
1j
00
0T
1s
0u
0t
1c
1W
0g
0U
1R
1V
1b
1E
0C
0D
1'
0)
0(
1k
0b
0W
1g
0k
#7000000
0!
0Q
0j
10
#7500000
1!
1Q
1j
00
1u
1U
0R
1C
1)
1b
#8000000
0!
0Q
0j
10
1T
#8500000
1!
1Q
1j
00
0T
0u
1t
0U
1R
0c
0V
0b
0C
1D
0)
1(
1V
1b
1W
0g
0W
1g
1k
0k
#9000000
0!
0Q
0j
10
#9500000
1!
1Q
1j
00
1u
1U
0R
1C
1)
0V
0b
1W
0g
1k
#10000000
0!
0Q
0j
10
1T
#10500000
1!
1Q
1j
00
0T
1r
0s
0u
0t
1a
0X
0k
0W
1g
0U
1R
1V
1b
1F
0E
0C
0D
1&
0'
0)
0(
1Y
1X
1k
0b
0g
0Y
#11000000
0!
0Q
0j
10
#11500000
1!
1Q
1j
00
1u
1U
0R
1C
1)
1b
#12000000
0!
0Q
0j
10
1T
#12500000
1!
1Q
1j
00
0T
0u
1t
0U
1R
0V
0b
0C
1D
0)
1(
1V
1b
1g
0g
#13000000
0!
0Q
0j
10
#13500000
1!
1Q
1j
00
1u
1U
0R
1C
1)
0V
0b
1g
#14000000
0!
0Q
0j
10
1T
#14500000
1!
1Q
1j
00
0T
1s
0u
0t
1c
1W
0g
0U
1R
1V
1b
1E
0C
0D
1'
0)
0(
1d
0X
0k
0b
0W
1g
1Y
1X
1k
0Y
#15000000
0!
0Q
0j
10
#15500000
1!
1Q
1j
00
1u
1U
0R
1C
1)
1b
#16000000
0!
0Q
0j
10
1T
1f
1e
1A
1*
#16500000
1!
1Q
1j
00
0T
0f
0e
0A
0*
1O
0r
0s
0u
1P
0h
0a
0k
0c
0g
0U
1R
0F
0E
0C
0&
0'
0)
0d
0b
1i
1B
1$
0O
0p
0n
0m
0P
0]
1c
1a
0H
0J
0K
0/
0-
0,
0^
0_
#17000000
0!
0Q
0j
10
1T
0i
0B
0$
#17500000
1!
1Q
1j
00
0T
1i
1B
1$
#18000000
0!
0Q
0j
10
1T
0i
0B
0$
#18500000
1!
1Q
1j
00
0T
1i
1B
1$
#19000000
0!
0Q
0j
10
1T
0i
0B
0$
#19500000
1!
1Q
1j
00
0T
1i
1B
1$
#20000000
0!
0Q
0j
10
1T
0i
0B
0$
#20500000
1!
1Q
1j
00
0T
1i
1B
1$
#21000000
0!
0Q
0j
10
1T
0i
0B
0$
#21500000
1!
1Q
1j
00
0T
1i
1B
1$
#22000000
0!
0Q
0j
10
1T
0i
0B
0$
#22500000
1!
1Q
1j
00
0T
1i
1B
1$
#23000000
0!
0Q
0j
10
1T
0i
0B
0$
#23500000
1!
1Q
1j
00
0T
1i
1B
1$
#24000000
0!
0Q
0j
10
1T
0i
0B
0$
#24500000
1!
1Q
1j
00
0T
1i
1B
1$
#25000000
0!
0Q
0j
10
1T
0i
0B
0$
#25500000
1!
1Q
1j
00
0T
1i
1B
1$
#26000000
0!
0Q
0j
10
1T
0i
0B
0$
#26500000
1!
1Q
1j
00
0T
1i
1B
1$
#27000000
0!
0Q
0j
10
1T
0i
0B
0$
#27500000
b1 #
1!
1<
1Q
1j
00
17
0T
1i
1B
1$
1p
1]
1H
1/
1^
07
1_
#28000000
0!
0Q
0j
10
0i
0B
0$
#28500000
b0 #
1!
0<
1Q
1j
00
1i
1B
1$
1u
1d
1U
0R
1C
1)
0i
1b
0B
0$
#29000000
0!
0Q
0j
10
1T
1f
1e
1A
1*
#29500000
1!
1Q
1j
00
0T
0f
0e
0A
0*
1O
0u
1P
0d
0U
1R
0C
0)
1i
0b
1B
1$
0O
0p
0P
0]
0H
0/
0^
0_
#30000000
0!
0Q
0j
10
1T
0i
0B
0$
#30500000
1!
1Q
1j
00
0T
1i
1B
1$
#31000000
0!
0Q
0j
10
1T
0i
0B
0$
#31500000
1!
1Q
1j
00
0T
1i
1B
1$
#32000000
0!
0Q
0j
10
1T
0i
0B
0$
#32500000
1!
1Q
1j
00
0T
1i
1B
1$
#33000000
0!
0Q
0j
10
1T
0i
0B
0$
#33500000
1!
1Q
1j
00
0T
1i
1B
1$
#34000000
0!
0Q
0j
10
1T
0i
0B
0$
#34500000
1!
1Q
1j
00
0T
1i
1B
1$
#35000000
0!
0Q
0j
10
1T
0i
0B
0$
#35500000
1!
1Q
1j
00
0T
1i
1B
1$
#36000000
0!
0Q
0j
10
1T
0i
0B
0$
#36500000
1!
1Q
1j
00
0T
1i
1B
1$
#37000000
0!
0Q
0j
10
1T
0i
0B
0$
#37500000
1!
1Q
1j
00
0T
1i
1B
1$
#38000000
0!
0Q
0j
10
1T
0i
0B
0$
#38500000
1!
1Q
1j
00
0T
1i
1B
1$
#39000000
0!
0Q
0j
10
1T
0i
0B
0$
#39500000
1!
1Q
1j
00
0T
1i
1B
1$
#40000000
0!
0Q
0j
10
1T
0i
0B
0$
#40500000
1!
1Q
1j
00
0T
1i
1B
1$
#41000000
0!
0Q
0j
10
1T
0i
0B
0$
#41500000
1!
1Q
1j
00
0T
1i
1B
1$
#42000000
0!
0Q
0j
10
1T
0i
0B
0$
#42500000
1!
1Q
1j
00
0T
1i
1B
1$
#43000000
0!
0Q
0j
10
1T
0i
0B
0$
#43500000
1!
1Q
1j
00
0T
1i
1B
1$
#44000000
0!
0Q
0j
10
1T
0i
0B
0$
#44500000
1!
1Q
1j
00
0T
1i
1B
1$
#45000000
0!
0Q
0j
10
1T
0i
0B
0$
#45500000
1!
1Q
1j
00
0T
1i
1B
1$
#46000000
0!
0Q
0j
10
1T
0i
0B
0$
#46500000
1!
1Q
1j
00
0T
1i
1B
1$
#47000000
0!
0Q
0j
10
1T
0i
0B
0$
#47500000
1!
1Q
1j
00
0T
1i
1B
1$
#48000000
0!
0Q
0j
10
1T
0i
0B
0$
#48500000
1!
1Q
1j
00
0T
1i
1B
1$
#49000000
0!
0Q
0j
10
1T
0i
0B
0$
#49500000
1!
1Q
1j
00
0T
1i
1B
1$
